PROJECT,SHA,STARTS,AUTORTS,STARTS-AUTORTS,AUTORTS-STARTS
dbutils,c44ef0401393c6a73a702feb948cd6973a231c1b,43,40,5,2,
dbutils,6817ed7bf264819c57946ee2fb1a965743af4bd6,0,2,0,2,
dbutils,54e978365278a1e6a566ffbcb37cfc1f47dfb142,0,2,0,2,
dbutils,df888ad71fdc0cebbed9c47ec496511223fc0df6,0,2,0,2,
dbutils,dd548963114debcfe02c64c83ccfe52e0814bbbd,0,2,0,2,
dbutils,0446d3f44b6b70bba8a64d1e278ac9bc6ea7dd56,0,19,0,19,
dbutils,5bc6f93965cd206d8849e24d9966eaa96e94725b,0,2,0,2,
dbutils,38a10ac32d5872bfdfe0d02ea72f8500194603d5,0,2,0,2,
dbutils,d890c34d81d9e59a9ab2e2811d9b7b8464928725,0,2,0,2,
dbutils,6d8ba4e579d217a7a6dc94abfb11fe3b54974cc3,0,2,0,2,
dbutils,920642362c32e6260cb2cd30c1416077be6c7ba4,0,2,0,2,
dbutils,d7181205fdfbee77197c95225dad0f961d875656,0,2,0,2,
dbutils,469d4a85c0bde16b90240763a9319f797b0849be,0,2,0,2,
dbutils,5dad81322639af165d5fc5ba7016c7bc9e172a4c,0,2,0,2,
dbutils,ea94faec8299f90f3c187b3b0f95aaf105758ceb,0,2,0,2,
dbutils,0e6405a12f74d6622e1d2e05bb649560da13669f,14,16,0,2,
dbutils,3b2361e7be051298dcd8532392dce0781ceb1f31,0,2,0,2,
dbutils,007dbf733fb929e35d13d61812e998d60904b723,0,7,0,7,
dbutils,062a9ed46749de1bb3f3e3842daa992ccda43449,0,2,0,2,
dbutils,084f286a0d7ffdde482ab5a9e4ada7affe2547f0,0,24,0,24,
