Checkout c44ef0401393c6a73a702feb948cd6973a231c1b
Selected test: org.apache.commons.dbutils.QueryRunnerTest
Selected test: org.apache.commons.dbutils.handlers.BeanMapHandlerTest
Selected test: org.apache.commons.dbutils.handlers.columns.LongColumnHandlerTest
Selected test: org.apache.commons.dbutils.wrappers.SqlNullCheckedResultSetTest
Selected test: org.apache.commons.dbutils.handlers.MapListHandlerTest
Selected test: org.apache.commons.dbutils.QueryLoaderTest
Selected test: org.apache.commons.dbutils.handlers.columns.ByteColumnHandlerTest
Selected test: org.apache.commons.dbutils.handlers.columns.DoubleColumnHandlerTest
Selected test: org.apache.commons.dbutils.BaseResultSetHandlerTest
Selected test: org.apache.commons.dbutils.ServiceLoaderTest
Selected test: org.apache.commons.dbutils.handlers.BeanHandlerTest
Selected test: org.apache.commons.dbutils.handlers.columns.SQLXMLColumnHandlerTest
Selected test: org.apache.commons.dbutils.handlers.ArrayListHandlerTest
Selected test: org.apache.commons.dbutils.DbUtilsTest
Selected test: org.apache.commons.dbutils.handlers.properties.StringEnumPropertyHandlerTest
Selected test: org.apache.commons.dbutils.handlers.ArrayHandlerTest
Selected test: org.apache.commons.dbutils.handlers.columns.ColumnHandlerTestBase
Selected test: org.apache.commons.dbutils.handlers.columns.TimestampColumnHandlerTest
Selected test: org.apache.commons.dbutils.handlers.columns.StringColumnHandlerTest
Selected test: org.apache.commons.dbutils.handlers.properties.DatePropertyHandlerTest
Selected test: org.apache.commons.dbutils.ProxyFactoryTest
Selected test: org.apache.commons.dbutils.handlers.ScalarHandlerTest
Selected test: org.apache.commons.dbutils.StatementConfigurationTest
Selected test: org.apache.commons.dbutils.handlers.KeyedHandlerTest
Selected test: org.apache.commons.dbutils.BasicRowProcessorTest
Selected test: org.apache.commons.dbutils.handlers.columns.BooleanColumnHandlerTest
Selected test: org.apache.commons.dbutils.handlers.MapHandlerTest
Selected test: org.apache.commons.dbutils.handlers.BeanListHandlerTest
Selected test: org.apache.commons.dbutils.handlers.columns.IntegerColumnHandlerTest
Selected test: org.apache.commons.dbutils.GenerousBeanProcessorTest
Selected test: org.apache.commons.dbutils.ResultSetIteratorTest
Selected test: org.apache.commons.dbutils.handlers.columns.FloatColumnHandlerTest
Selected test: org.apache.commons.dbutils.handlers.ColumnListHandlerTest
Selected test: org.apache.commons.dbutils.handlers.columns.ShortColumnHandlerTest
Selected test: org.apache.commons.dbutils.BaseTestCase
Selected test: org.apache.commons.dbutils.wrappers.StringTrimmedResultSetTest
Selected test: org.apache.commons.dbutils.AsyncQueryRunnerTest
Selected test: org.apache.commons.dbutils.BeanProcessorTest
Selected test: org.apache.commons.dbutils.OutParameterTest
Selected test: org.apache.commons.dbutils.handlers.properties.PropertyHandlerTest
Selected 259 out of 259 tests (100%)
Selected 259 out of 259 tests (100%)
Checkout 6817ed7bf264819c57946ee2fb1a965743af4bd6
Selected test: org.apache.commons.dbutils.BaseResultSetHandlerTest
Selected test: org.apache.commons.dbutils.handlers.columns.ColumnHandlerTestBase
Selected 3 out of 259 tests (1%)
Selected 259 out of 259 tests (100%)
Checkout 54e978365278a1e6a566ffbcb37cfc1f47dfb142
Selected test: org.apache.commons.dbutils.BaseResultSetHandlerTest
Selected test: org.apache.commons.dbutils.handlers.columns.ColumnHandlerTestBase
Selected 3 out of 259 tests (1%)
Selected 259 out of 259 tests (100%)
Checkout df888ad71fdc0cebbed9c47ec496511223fc0df6
Selected test: org.apache.commons.dbutils.BaseResultSetHandlerTest
Selected test: org.apache.commons.dbutils.handlers.columns.ColumnHandlerTestBase
Selected 3 out of 259 tests (1%)
Selected 259 out of 259 tests (100%)
Checkout dd548963114debcfe02c64c83ccfe52e0814bbbd
Selected test: org.apache.commons.dbutils.BaseResultSetHandlerTest
Selected test: org.apache.commons.dbutils.handlers.columns.ColumnHandlerTestBase
Selected 3 out of 259 tests (1%)
Selected 259 out of 259 tests (100%)
Checkout 0446d3f44b6b70bba8a64d1e278ac9bc6ea7dd56
Selected test: org.apache.commons.dbutils.QueryRunnerTest
Selected test: org.apache.commons.dbutils.handlers.BeanMapHandlerTest
Selected test: org.apache.commons.dbutils.wrappers.SqlNullCheckedResultSetTest
Selected test: org.apache.commons.dbutils.handlers.MapListHandlerTest
Selected test: org.apache.commons.dbutils.BaseResultSetHandlerTest
Selected test: org.apache.commons.dbutils.handlers.BeanHandlerTest
Selected test: org.apache.commons.dbutils.handlers.ArrayListHandlerTest
Selected test: org.apache.commons.dbutils.handlers.ArrayHandlerTest
Selected test: org.apache.commons.dbutils.handlers.columns.ColumnHandlerTestBase
Selected test: org.apache.commons.dbutils.handlers.KeyedHandlerTest
Selected test: org.apache.commons.dbutils.BasicRowProcessorTest
Selected test: org.apache.commons.dbutils.handlers.BeanListHandlerTest
Selected test: org.apache.commons.dbutils.handlers.MapHandlerTest
Selected test: org.apache.commons.dbutils.GenerousBeanProcessorTest
Selected test: org.apache.commons.dbutils.ResultSetIteratorTest
Selected test: org.apache.commons.dbutils.wrappers.StringTrimmedResultSetTest
Selected test: org.apache.commons.dbutils.AsyncQueryRunnerTest
Selected test: org.apache.commons.dbutils.BeanProcessorTest
Selected test: org.apache.commons.dbutils.OutParameterTest
Selected 180 out of 259 tests (69%)
Selected 259 out of 259 tests (100%)
Checkout 5bc6f93965cd206d8849e24d9966eaa96e94725b
Selected test: org.apache.commons.dbutils.BaseResultSetHandlerTest
Selected test: org.apache.commons.dbutils.handlers.columns.ColumnHandlerTestBase
Selected 3 out of 259 tests (1%)
Selected 259 out of 259 tests (100%)
Checkout 38a10ac32d5872bfdfe0d02ea72f8500194603d5
Selected test: org.apache.commons.dbutils.BaseResultSetHandlerTest
Selected test: org.apache.commons.dbutils.handlers.columns.ColumnHandlerTestBase
Selected 3 out of 259 tests (1%)
Selected 259 out of 259 tests (100%)
Checkout d890c34d81d9e59a9ab2e2811d9b7b8464928725
Selected test: org.apache.commons.dbutils.BaseResultSetHandlerTest
Selected test: org.apache.commons.dbutils.handlers.columns.ColumnHandlerTestBase
Selected 3 out of 259 tests (1%)
Selected 259 out of 259 tests (100%)
Checkout 6d8ba4e579d217a7a6dc94abfb11fe3b54974cc3
Selected test: org.apache.commons.dbutils.BaseResultSetHandlerTest
Selected test: org.apache.commons.dbutils.handlers.columns.ColumnHandlerTestBase
Selected 3 out of 259 tests (1%)
Selected 259 out of 259 tests (100%)
Checkout 920642362c32e6260cb2cd30c1416077be6c7ba4
Selected test: org.apache.commons.dbutils.BaseResultSetHandlerTest
Selected test: org.apache.commons.dbutils.handlers.columns.ColumnHandlerTestBase
Selected 3 out of 259 tests (1%)
Selected 259 out of 259 tests (100%)
Checkout d7181205fdfbee77197c95225dad0f961d875656
Selected test: org.apache.commons.dbutils.BaseResultSetHandlerTest
Selected test: org.apache.commons.dbutils.handlers.columns.ColumnHandlerTestBase
Selected 3 out of 259 tests (1%)
Selected 259 out of 259 tests (100%)
Checkout 469d4a85c0bde16b90240763a9319f797b0849be
Selected test: org.apache.commons.dbutils.BaseResultSetHandlerTest
Selected test: org.apache.commons.dbutils.handlers.columns.ColumnHandlerTestBase
Selected 3 out of 259 tests (1%)
Selected 259 out of 259 tests (100%)
Checkout 5dad81322639af165d5fc5ba7016c7bc9e172a4c
Selected test: org.apache.commons.dbutils.BaseResultSetHandlerTest
Selected test: org.apache.commons.dbutils.handlers.columns.ColumnHandlerTestBase
Selected 3 out of 259 tests (1%)
Selected 259 out of 259 tests (100%)
Checkout ea94faec8299f90f3c187b3b0f95aaf105758ceb
Selected test: org.apache.commons.dbutils.BaseResultSetHandlerTest
Selected test: org.apache.commons.dbutils.handlers.columns.ColumnHandlerTestBase
Selected 3 out of 259 tests (1%)
Selected 259 out of 259 tests (100%)
Checkout 0e6405a12f74d6622e1d2e05bb649560da13669f
Selected test: org.apache.commons.dbutils.QueryRunnerTest
Selected test: org.apache.commons.dbutils.handlers.BeanMapHandlerTest
Selected test: org.apache.commons.dbutils.handlers.MapListHandlerTest
Selected test: org.apache.commons.dbutils.BaseResultSetHandlerTest
Selected test: org.apache.commons.dbutils.handlers.BeanHandlerTest
Selected test: org.apache.commons.dbutils.handlers.ArrayListHandlerTest
Selected test: org.apache.commons.dbutils.handlers.ArrayHandlerTest
Selected test: org.apache.commons.dbutils.handlers.columns.ColumnHandlerTestBase
Selected test: org.apache.commons.dbutils.handlers.KeyedHandlerTest
Selected test: org.apache.commons.dbutils.BasicRowProcessorTest
Selected test: org.apache.commons.dbutils.handlers.BeanListHandlerTest
Selected test: org.apache.commons.dbutils.handlers.MapHandlerTest
Selected test: org.apache.commons.dbutils.GenerousBeanProcessorTest
Selected test: org.apache.commons.dbutils.ResultSetIteratorTest
Selected test: org.apache.commons.dbutils.AsyncQueryRunnerTest
Selected test: org.apache.commons.dbutils.BeanProcessorTest
Selected 133 out of 259 tests (51%)
Selected 259 out of 259 tests (100%)
Checkout 3b2361e7be051298dcd8532392dce0781ceb1f31
Selected test: org.apache.commons.dbutils.BaseResultSetHandlerTest
Selected test: org.apache.commons.dbutils.handlers.columns.ColumnHandlerTestBase
Selected 3 out of 259 tests (1%)
Selected 259 out of 259 tests (100%)
Checkout 007dbf733fb929e35d13d61812e998d60904b723
Selected test: org.apache.commons.dbutils.handlers.BeanMapHandlerTest
Selected test: org.apache.commons.dbutils.BaseResultSetHandlerTest
Selected test: org.apache.commons.dbutils.handlers.BeanHandlerTest
Selected test: org.apache.commons.dbutils.handlers.columns.ColumnHandlerTestBase
Selected test: org.apache.commons.dbutils.BasicRowProcessorTest
Selected test: org.apache.commons.dbutils.handlers.BeanListHandlerTest
Selected test: org.apache.commons.dbutils.BeanProcessorTest
Selected 25 out of 259 tests (10%)
Selected 259 out of 259 tests (100%)
Checkout 062a9ed46749de1bb3f3e3842daa992ccda43449
Selected test: org.apache.commons.dbutils.BaseResultSetHandlerTest
Selected test: org.apache.commons.dbutils.handlers.columns.ColumnHandlerTestBase
Selected 3 out of 259 tests (1%)
Selected 259 out of 259 tests (100%)
Checkout 084f286a0d7ffdde482ab5a9e4ada7affe2547f0
Selected test: org.apache.commons.dbutils.QueryRunnerTest
Selected test: org.apache.commons.dbutils.handlers.BeanMapHandlerTest
Selected test: org.apache.commons.dbutils.wrappers.SqlNullCheckedResultSetTest
Selected test: org.apache.commons.dbutils.handlers.MapListHandlerTest
Selected test: org.apache.commons.dbutils.QueryLoaderTest
Selected test: org.apache.commons.dbutils.BaseResultSetHandlerTest
Selected test: org.apache.commons.dbutils.handlers.BeanHandlerTest
Selected test: org.apache.commons.dbutils.handlers.ArrayListHandlerTest
Selected test: org.apache.commons.dbutils.DbUtilsTest
Selected test: org.apache.commons.dbutils.handlers.ArrayHandlerTest
Selected test: org.apache.commons.dbutils.handlers.columns.ColumnHandlerTestBase
Selected test: org.apache.commons.dbutils.ProxyFactoryTest
Selected test: org.apache.commons.dbutils.handlers.ScalarHandlerTest
Selected test: org.apache.commons.dbutils.handlers.KeyedHandlerTest
Selected test: org.apache.commons.dbutils.BasicRowProcessorTest
Selected test: org.apache.commons.dbutils.handlers.BeanListHandlerTest
Selected test: org.apache.commons.dbutils.handlers.MapHandlerTest
Selected test: org.apache.commons.dbutils.GenerousBeanProcessorTest
Selected test: org.apache.commons.dbutils.ResultSetIteratorTest
Selected test: org.apache.commons.dbutils.handlers.ColumnListHandlerTest
Selected test: org.apache.commons.dbutils.BaseTestCase
Selected test: org.apache.commons.dbutils.wrappers.StringTrimmedResultSetTest
Selected test: org.apache.commons.dbutils.AsyncQueryRunnerTest
Selected test: org.apache.commons.dbutils.BeanProcessorTest
Selected 229 out of 259 tests (88%)
Selected 259 out of 259 tests (100%)
