Checkout f8f529ee0baecc9262317cc5375af1eb42aadab4
INFO: 
INFO: ********** AffectedTests **********
INFO: org.apache.commons.fileupload.DefaultFileItemTest
INFO: org.apache.commons.fileupload.DiskFileItemSerializeTest
INFO: org.apache.commons.fileupload.DiskFileUploadTest
INFO: org.apache.commons.fileupload.FileItemHeadersTest
INFO: org.apache.commons.fileupload.FileUploadTest
INFO: org.apache.commons.fileupload.MultipartStreamTest
INFO: org.apache.commons.fileupload.ParameterParserTest
INFO: org.apache.commons.fileupload.ProgressListenerTest
INFO: org.apache.commons.fileupload.SizesTest
INFO: org.apache.commons.fileupload.StreamingTest
INFO: org.apache.commons.fileupload.portlet.PortletFileUploadTest
INFO: org.apache.commons.fileupload.servlet.ServletFileUploadTest
INFO: org.apache.commons.fileupload.util.mime.Base64DecoderTestCase
INFO: org.apache.commons.fileupload.util.mime.MimeUtilityTestCase
INFO: org.apache.commons.fileupload.util.mime.QuotedPrintableDecoderTestCase
INFO: ALL(count): 74
INFO: UNREACHED(count): 1
INFO: STARTS:Nodes: 774
INFO: STARTS:Edges: 5020
INFO: STARTS:AffectedTests: 15
INFO: STARTS:TotalTests: 15
Checkout 86a79bceac4a267819de986ca814f11b48d81da3
INFO: ********** Run **********
INFO: No tests are selected to run.
INFO: 
INFO: ********** AffectedTests **********
INFO: AffectedTests found no classes.
INFO: STARTS:AffectedTests: 0
INFO: STARTS:TotalTests: 15
INFO: ********** Run **********
INFO: No tests are selected to run.
Checkout cc67fb5c51548cdb87e3888f1696a2622bb4b446
INFO: ********** Run **********
INFO: No tests are selected to run.
INFO: 
INFO: ********** AffectedTests **********
INFO: AffectedTests found no classes.
INFO: STARTS:AffectedTests: 0
INFO: STARTS:TotalTests: 15
INFO: ********** Run **********
INFO: No tests are selected to run.
Checkout fc2d541d3599bb8546f956af1f9ce1d189dda7cc
INFO: ********** Run **********
INFO: No tests are selected to run.
INFO: 
INFO: ********** AffectedTests **********
INFO: AffectedTests found no classes.
INFO: STARTS:AffectedTests: 0
INFO: STARTS:TotalTests: 15
INFO: ********** Run **********
INFO: No tests are selected to run.
Checkout 422caf46e5b7a950c639b8ba9fe41e16279b3aa9
INFO: 
INFO: ********** AffectedTests **********
INFO: org.apache.commons.fileupload.FileUploadTest
INFO: org.apache.commons.fileupload.ProgressListenerTest
INFO: org.apache.commons.fileupload.SizesTest
INFO: org.apache.commons.fileupload.portlet.PortletFileUploadTest
INFO: org.apache.commons.fileupload.servlet.ServletFileUploadTest
INFO: ALL(count): 74
INFO: UNREACHED(count): 1
INFO: STARTS:Nodes: 773
INFO: STARTS:Edges: 5010
INFO: STARTS:AffectedTests: 5
INFO: STARTS:TotalTests: 15
Checkout a6fd4ca68567e7a5fbebc680e7511e0c3bb924cf
INFO: ********** Run **********
INFO: No tests are selected to run.
INFO: 
INFO: ********** AffectedTests **********
INFO: AffectedTests found no classes.
INFO: STARTS:AffectedTests: 0
INFO: STARTS:TotalTests: 15
INFO: ********** Run **********
INFO: No tests are selected to run.
Checkout 5832cbfbb141264599f0298d31ac3c84c08c601e
INFO: ********** Run **********
INFO: No tests are selected to run.
INFO: 
INFO: ********** AffectedTests **********
INFO: AffectedTests found no classes.
INFO: STARTS:AffectedTests: 0
INFO: STARTS:TotalTests: 15
INFO: ********** Run **********
INFO: No tests are selected to run.
Checkout 248fff186e33dcdcff49bea4f1f894f5c226c36c
INFO: ********** Run **********
INFO: No tests are selected to run.
INFO: 
INFO: ********** AffectedTests **********
INFO: AffectedTests found no classes.
INFO: STARTS:AffectedTests: 0
INFO: STARTS:TotalTests: 15
INFO: ********** Run **********
INFO: No tests are selected to run.
Checkout 85104ae61e58ea3493b7984c0bca2139171aa3ef
INFO: ********** Run **********
INFO: No tests are selected to run.
INFO: 
INFO: ********** AffectedTests **********
INFO: AffectedTests found no classes.
INFO: STARTS:AffectedTests: 0
INFO: STARTS:TotalTests: 15
INFO: ********** Run **********
INFO: No tests are selected to run.
Checkout 2434446fbaff5ee8d90ec884e32e08aa75492841
INFO: 
INFO: ********** AffectedTests **********
INFO: org.apache.commons.fileupload.DefaultFileItemTest
INFO: org.apache.commons.fileupload.DiskFileItemSerializeTest
INFO: org.apache.commons.fileupload.DiskFileUploadTest
INFO: org.apache.commons.fileupload.FileUploadTest
INFO: org.apache.commons.fileupload.SizesTest
INFO: org.apache.commons.fileupload.StreamingTest
INFO: org.apache.commons.fileupload.portlet.PortletFileUploadTest
INFO: org.apache.commons.fileupload.servlet.ServletFileUploadTest
INFO: ALL(count): 74
INFO: UNREACHED(count): 1
INFO: STARTS:Nodes: 773
INFO: STARTS:Edges: 5011
INFO: STARTS:AffectedTests: 8
INFO: STARTS:TotalTests: 15
Checkout 35d6e9e41a92c9654d607f4163eee1c830725e06
INFO: ********** Run **********
INFO: No tests are selected to run.
INFO: 
INFO: ********** AffectedTests **********
INFO: AffectedTests found no classes.
INFO: STARTS:AffectedTests: 0
INFO: STARTS:TotalTests: 15
INFO: ********** Run **********
INFO: No tests are selected to run.
Checkout 01a9e0e3555fdfa6ff3e8c7b66047ee566e0f6fc
INFO: ********** Run **********
INFO: No tests are selected to run.
INFO: 
INFO: ********** AffectedTests **********
INFO: AffectedTests found no classes.
INFO: STARTS:AffectedTests: 0
INFO: STARTS:TotalTests: 15
INFO: ********** Run **********
INFO: No tests are selected to run.
Checkout b57dcf4d3d5a63f05e9ac16286a9aac79f580a7f
INFO: ********** Run **********
INFO: No tests are selected to run.
INFO: 
INFO: ********** AffectedTests **********
INFO: AffectedTests found no classes.
INFO: STARTS:AffectedTests: 0
INFO: STARTS:TotalTests: 15
INFO: ********** Run **********
INFO: No tests are selected to run.
Checkout 180f6138b185a03ae1ee154b8048d67cf23af181
INFO: 
INFO: ********** AffectedTests **********
INFO: org.apache.commons.fileupload.DefaultFileItemTest
INFO: org.apache.commons.fileupload.DiskFileItemSerializeTest
INFO: org.apache.commons.fileupload.DiskFileUploadTest
INFO: org.apache.commons.fileupload.FileUploadTest
INFO: org.apache.commons.fileupload.SizesTest
INFO: org.apache.commons.fileupload.StreamingTest
INFO: org.apache.commons.fileupload.portlet.PortletFileUploadTest
INFO: org.apache.commons.fileupload.servlet.ServletFileUploadTest
INFO: ALL(count): 74
INFO: UNREACHED(count): 1
INFO: STARTS:Nodes: 773
INFO: STARTS:Edges: 5011
INFO: STARTS:AffectedTests: 8
INFO: STARTS:TotalTests: 15
Checkout 4242ff461ef2fd28a41b04946c0161f3d891da54
INFO: 
INFO: ********** AffectedTests **********
INFO: org.apache.commons.fileupload.DefaultFileItemTest
INFO: org.apache.commons.fileupload.DiskFileItemSerializeTest
INFO: org.apache.commons.fileupload.DiskFileUploadTest
INFO: org.apache.commons.fileupload.FileUploadTest
INFO: org.apache.commons.fileupload.SizesTest
INFO: org.apache.commons.fileupload.StreamingTest
INFO: org.apache.commons.fileupload.portlet.PortletFileUploadTest
INFO: org.apache.commons.fileupload.servlet.ServletFileUploadTest
INFO: ALL(count): 74
INFO: UNREACHED(count): 1
INFO: STARTS:Nodes: 773
INFO: STARTS:Edges: 5011
INFO: STARTS:AffectedTests: 8
INFO: STARTS:TotalTests: 15
Checkout 6c00d575a9521c386743891fd34bc5181174cc01
INFO: ********** Run **********
INFO: No tests are selected to run.
INFO: 
INFO: ********** AffectedTests **********
INFO: AffectedTests found no classes.
INFO: STARTS:AffectedTests: 0
INFO: STARTS:TotalTests: 15
INFO: ********** Run **********
INFO: No tests are selected to run.
Checkout 3cc0a34d2dd4d8ee6ad2f025a955b6d98e2b8f2d
INFO: 
INFO: ********** AffectedTests **********
INFO: org.apache.commons.fileupload.DefaultFileItemTest
INFO: org.apache.commons.fileupload.DiskFileItemSerializeTest
INFO: org.apache.commons.fileupload.DiskFileUploadTest
INFO: org.apache.commons.fileupload.FileUploadTest
INFO: org.apache.commons.fileupload.MultipartStreamTest
INFO: org.apache.commons.fileupload.ParameterParserTest
INFO: org.apache.commons.fileupload.ProgressListenerTest
INFO: org.apache.commons.fileupload.SizesTest
INFO: org.apache.commons.fileupload.StreamingTest
INFO: org.apache.commons.fileupload.portlet.PortletFileUploadTest
INFO: org.apache.commons.fileupload.servlet.ServletFileUploadTest
INFO: org.apache.commons.fileupload.util.mime.MimeUtilityTestCase
INFO: ALL(count): 74
INFO: UNREACHED(count): 1
INFO: STARTS:Nodes: 773
INFO: STARTS:Edges: 5011
INFO: STARTS:AffectedTests: 12
INFO: STARTS:TotalTests: 15
Checkout a2446c7fced12f49766206009ba193b8e1563ca5
INFO: ********** Run **********
INFO: No tests are selected to run.
INFO: 
INFO: ********** AffectedTests **********
INFO: AffectedTests found no classes.
INFO: STARTS:AffectedTests: 0
INFO: STARTS:TotalTests: 15
INFO: ********** Run **********
INFO: No tests are selected to run.
Checkout bede1aaceec656c4330e7c51b3f232ae469e7e0e
INFO: ********** Run **********
INFO: No tests are selected to run.
INFO: 
INFO: ********** AffectedTests **********
INFO: AffectedTests found no classes.
INFO: STARTS:AffectedTests: 0
INFO: STARTS:TotalTests: 15
INFO: ********** Run **********
INFO: No tests are selected to run.
Checkout cae90facebc54803232a0593003914ca77193a73
INFO: 
INFO: ********** AffectedTests **********
INFO: org.apache.commons.fileupload.DiskFileUploadTest
INFO: org.apache.commons.fileupload.FileUploadTest
INFO: org.apache.commons.fileupload.MultipartStreamTest
INFO: org.apache.commons.fileupload.ProgressListenerTest
INFO: org.apache.commons.fileupload.SizesTest
INFO: org.apache.commons.fileupload.StreamingTest
INFO: org.apache.commons.fileupload.portlet.PortletFileUploadTest
INFO: org.apache.commons.fileupload.servlet.ServletFileUploadTest
INFO: ALL(count): 74
INFO: UNREACHED(count): 1
INFO: STARTS:Nodes: 773
INFO: STARTS:Edges: 5011
INFO: STARTS:AffectedTests: 8
INFO: STARTS:TotalTests: 15
