Checkout 5de509a579b0c39b1dcd3c7641680ade54851c3b
Selected test: org.apache.commons.functor.adapter.TestBinaryFunctionBinaryProcedure
Selected test: org.apache.commons.functor.core.algorithm.TestGeneratorContains
Selected test: org.apache.commons.functor.core.composite.TestConditionalProcedure
Selected test: org.apache.commons.functor.core.comparator.TestIsLessThanOrEqual
Selected test: org.apache.commons.functor.core.comparator.TestComparatorFunction
Selected test: org.apache.commons.functor.aggregator.functions.IntMedianValueAggregatorFunctionTest
Selected test: org.apache.commons.functor.aggregator.functions.DoubleMeanValueAggregatorFunctionTest
Selected test: org.apache.commons.functor.core.TestRightIdentity
Selected test: org.apache.commons.functor.adapter.TestNullaryFunctionFunction
Selected test: org.apache.commons.functor.generator.TestWhileGenerate
Selected test: org.apache.commons.functor.core.TestLeftIdentity
Selected test: org.apache.commons.functor.adapter.TestFullyBoundNullaryPredicate
Selected test: org.apache.commons.functor.generator.TestGenerateUntil
Selected test: org.apache.commons.functor.adapter.TestIgnoreLeftProcedure
Selected test: org.apache.commons.functor.core.comparator.TestIsEquivalent
Selected test: org.apache.commons.functor.adapter.TestBoundNullaryPredicate
Selected test: org.apache.commons.functor.example.aggregator.list.OwnFunctionImplementationSample
Selected test: org.apache.commons.functor.core.composite.TestTransposedProcedure
Selected test: org.apache.commons.functor.TestAlgorithms
Selected test: org.apache.commons.functor.aggregator.functions.IntMeanValueAggregatorFunctionTest
Selected test: org.apache.commons.functor.adapter.TestBinaryPredicatePredicate
Selected test: org.apache.commons.functor.core.composite.TestComposite
Selected test: org.apache.commons.functor.adapter.TestFullyBoundNullaryFunction
Selected test: org.apache.commons.functor.core.comparator.TestIsWithinRange
Selected test: org.apache.commons.functor.core.collection.TestTransformedIterator
Selected test: org.apache.commons.functor.adapter.TestIgnoreRightProcedure
Selected test: org.apache.commons.functor.core.composite.TestBinaryCompositeBinaryFunction
Selected test: org.apache.commons.functor.core.collection.TestIsEmpty
Selected test: org.apache.commons.functor.core.composite.TestTransposedPredicate
Selected test: org.apache.commons.functor.core.composite.TestConditionalNullaryPredicate
Selected test: org.apache.commons.functor.core.composite.TestAnd
Selected test: org.apache.commons.functor.example.aggregator.nostore.NoStoreAggregatorSample
Selected test: org.apache.commons.functor.core.collection.TestFilteredIterable
Selected test: org.apache.commons.functor.core.TestOffset
Selected test: org.apache.commons.functor.aggregator.AbstractNoStoreAggregatorTest
Selected test: org.apache.commons.functor.BaseFunctorTest
Selected test: org.apache.commons.functor.core.algorithm.TestFoldLeft
Selected test: org.apache.commons.functor.adapter.TestFunctionPredicate
Selected test: org.apache.commons.functor.adapter.TestIgnoreRightFunction
Selected test: org.apache.commons.functor.core.composite.TestBinaryAnd
Selected test: org.apache.commons.functor.aggregator.AbstractTimedAggregatorTest
Selected test: org.apache.commons.functor.core.composite.TestNot
Selected test: org.apache.commons.functor.adapter.TestNullaryProcedureNullaryFunction
Selected test: org.apache.commons.functor.adapter.TestFunctionProcedure
Selected test: org.apache.commons.functor.core.TestIsNotNull
Selected test: org.apache.commons.functor.adapter.TestBinaryFunctionBinaryPredicate
Selected test: org.apache.commons.functor.core.composite.TestConditionalBinaryFunction
Selected test: org.apache.commons.functor.aggregator.functions.DoubleSumAggregatorFunctionTest
Selected test: org.apache.commons.functor.adapter.TestProcedureProcedure
Selected test: org.apache.commons.functor.core.comparator.TestIsNotEquivalent
Selected test: org.apache.commons.functor.adapter.TestBoundNullaryProcedure
Selected test: org.apache.commons.functor.aggregator.functions.IntSumAggregatorBinaryFunctionTest
Selected test: org.apache.commons.functor.core.comparator.TestMin
Selected test: org.apache.commons.functor.core.composite.TestConditionalPredicate
Selected test: org.apache.commons.functor.core.algorithm.TestFoldRight
Selected test: org.apache.commons.functor.core.composite.TestConditionalFunction
Selected test: org.apache.commons.functor.adapter.TestNullaryPredicatePredicate
Selected test: org.apache.commons.functor.core.composite.TestCompositeProcedure
Selected test: org.apache.commons.functor.generator.util.TestIntegerRange
Selected test: org.apache.commons.functor.core.comparator.TestMax
Selected test: org.apache.commons.functor.aggregator.functions.IntMaxAggregatorBinaryFunctionTest
Selected test: org.apache.commons.functor.core.algorithm.TestIndexOfInGenerator
Selected test: org.apache.commons.functor.aggregator.ArrayListBackedAggregatorTest
Selected test: org.apache.commons.functor.core.composite.TestCompositeBinaryFunction
Selected test: org.apache.commons.functor.core.composite.TestTransformedNullaryFunction
Selected test: org.apache.commons.functor.core.composite.TestDoWhileNullaryProcedure
Selected test: org.apache.commons.functor.core.composite.TestConditionalNullaryProcedure
Selected test: org.apache.commons.functor.core.collection.TestIsElementOf
Selected test: org.apache.commons.functor.example.map.TestFixedSizeMap
Selected test: org.apache.commons.functor.example.FlexiMapExample
Selected test: org.apache.commons.functor.core.composite.TestNullaryNot
Selected test: org.apache.commons.functor.core.comparator.TestIsLessThan
Selected test: org.apache.commons.functor.aggregator.functions.IntSumAggregatorFunctionTest
Selected test: org.apache.commons.functor.core.composite.TestConditionalNullaryFunction
Selected test: org.apache.commons.functor.core.TestIdentity
Selected test: org.apache.commons.functor.core.TestNoOp
Selected test: org.apache.commons.functor.core.algorithm.TestDoUntil
Selected test: org.apache.commons.functor.core.composite.TestCompositeFunction
Selected test: org.apache.commons.functor.aggregator.functions.IntMaxAggregatorFunctionTest
Selected test: org.apache.commons.functor.adapter.TestRightBoundPredicate
Selected test: org.apache.commons.functor.core.TestIsInstance
Selected test: org.apache.commons.functor.core.composite.TestCompositeBinaryPredicate
Selected test: org.apache.commons.functor.example.kata.one.SupermarketPricingExample
Selected test: org.apache.commons.functor.example.aggregator.list.OwnListImplementationSample
Selected test: org.apache.commons.functor.core.composite.TestConditional
Selected test: org.apache.commons.functor.core.composite.TestWhileDoNullaryProcedure
Selected test: org.apache.commons.functor.aggregator.functions.DoubleMaxAggregatorFunctionTest
Selected test: org.apache.commons.functor.core.composite.TestTransposedFunction
Selected test: org.apache.commons.functor.core.algorithm.TestRemoveMatching
Selected test: org.apache.commons.functor.core.composite.TestConditionalBinaryProcedure
Selected test: org.apache.commons.functor.core.comparator.BaseComparisonPredicateTest
Selected test: org.apache.commons.functor.adapter.TestLeftBoundFunction
Selected test: org.apache.commons.functor.example.kata.two.TestBinaryChop
Selected test: org.apache.commons.functor.core.composite.TestOr
Selected test: org.apache.commons.functor.core.collection.TestFilteredIterator
Selected test: org.apache.commons.functor.adapter.TestLeftBoundProcedure
Selected test: org.apache.commons.functor.generator.TestGenerateWhile
Selected test: org.apache.commons.functor.core.composite.TestNullarySequence
Selected test: org.apache.commons.functor.example.lines.TestLines
Selected test: org.apache.commons.functor.adapter.TestRightBoundProcedure
Selected test: org.apache.commons.functor.core.algorithm.TestRetainMatching
Selected test: org.apache.commons.functor.core.TestIsNotEqual
Selected test: org.apache.commons.functor.example.map.TestLazyMap
Selected test: org.apache.commons.functor.example.kata.four.TestSoccer
Selected test: org.apache.commons.functor.core.composite.TestNullaryAnd
Selected test: org.apache.commons.functor.adapter.TestNullaryFunctionNullaryProcedure
Selected test: org.apache.commons.functor.core.TestIsSame
Selected test: org.apache.commons.functor.core.algorithm.TestRecursiveEvaluation
Selected test: org.apache.commons.functor.adapter.TestBinaryPredicateBinaryFunction
Selected test: org.apache.commons.functor.aggregator.functions.DoubleMedianValueAggregatorFunctionTest
Selected test: org.apache.commons.functor.generator.TestBaseGenerator
Selected test: org.apache.commons.functor.core.TestIsEqual
Selected test: org.apache.commons.functor.generator.TestIteratorToGeneratorAdapter
Selected test: org.apache.commons.functor.adapter.TestBinaryProcedureBinaryFunction
Selected test: org.apache.commons.functor.core.algorithm.TestWhileDo
Selected test: org.apache.commons.functor.core.composite.TestCompositePredicate
Selected test: org.apache.commons.functor.adapter.TestBinaryProcedureProcedure
Selected test: org.apache.commons.functor.adapter.TestProcedureFunction
Selected test: org.apache.commons.functor.aggregator.functions.IntCountAggregatorBinaryFunctionTest
Selected test: org.apache.commons.functor.adapter.TestNullaryPredicateNullaryFunction
Selected test: org.apache.commons.functor.core.composite.TestAbstractLoopNullaryProcedure
Selected test: org.apache.commons.functor.core.composite.TestTransformedBinaryProcedure
Selected test: org.apache.commons.functor.example.map.TestPredicatedMap
Selected test: org.apache.commons.functor.aggregator.functions.DoubleSumAggregatorBinaryFunctionTest
Selected test: org.apache.commons.functor.adapter.TestIgnoreLeftFunction
Selected test: org.apache.commons.functor.adapter.TestFullyBoundNullaryProcedure
Selected test: org.apache.commons.functor.aggregator.functions.DoubleMaxAggregatorBinaryFunctionTest
Selected test: org.apache.commons.functor.generator.TestUntilGenerate
Selected test: org.apache.commons.functor.generator.TestFilteredGenerator
Selected test: org.apache.commons.functor.aggregator.functions.IntPercentileAggregatorFunctionTest
Selected test: org.apache.commons.functor.generator.util.TestEachElement
Selected test: org.apache.commons.functor.aggregator.AbstractListBackedAggregatorTest
Selected test: org.apache.commons.functor.adapter.TestPredicateFunction
Selected test: org.apache.commons.functor.generator.util.TestLongRange
Selected test: org.apache.commons.functor.core.algorithm.TestFindWithinGenerator
Selected test: org.apache.commons.functor.core.TestIsNull
Selected test: org.apache.commons.functor.core.composite.TestTransformedBinaryFunction
Selected test: org.apache.commons.functor.core.TestIsNotSame
Selected test: org.apache.commons.functor.adapter.TestNullaryFunctionNullaryPredicate
Selected test: org.apache.commons.functor.core.comparator.TestComparableComparator
Selected test: org.apache.commons.functor.core.composite.TestTransformedNullaryProcedure
Selected test: org.apache.commons.functor.adapter.TestRightBoundFunction
Selected test: org.apache.commons.functor.aggregator.functions.DoublePercentileAggregatorFunctionTest
Selected test: org.apache.commons.functor.core.composite.TestSequence
Selected test: org.apache.commons.functor.adapter.TestBoundNullaryFunction
Selected test: org.apache.commons.functor.core.comparator.TestIsGreaterThan
Selected test: org.apache.commons.functor.adapter.TestIgnoreRightPredicate
Selected test: org.apache.commons.functor.generator.TestTransformedGenerator
Selected test: org.apache.commons.functor.adapter.TestBinaryFunctionFunction
Selected test: org.apache.commons.functor.core.TestLimit
Selected test: org.apache.commons.functor.core.algorithm.TestDoWhile
Selected test: org.apache.commons.functor.example.QuicksortExample
Selected test: org.apache.commons.functor.core.algorithm.TestUntilDo
Selected test: org.apache.commons.functor.core.comparator.TestIsGreaterThanOrEqual
Selected test: org.apache.commons.functor.core.composite.TestBinaryOr
Selected test: org.apache.commons.functor.core.composite.TestBinaryNot
Selected test: org.apache.commons.functor.adapter.TestLeftBoundPredicate
Selected test: org.apache.commons.functor.example.kata.four.TestWeather
Selected test: org.apache.commons.functor.core.collection.TestSize
Selected test: org.apache.commons.functor.core.TestConstant
Selected test: org.apache.commons.functor.core.algorithm.TestInPlaceTransform
Selected test: org.apache.commons.functor.core.composite.TestBinarySequence
Selected test: org.apache.commons.functor.adapter.TestIgnoreLeftPredicate
Selected test: org.apache.commons.functor.core.composite.TestNullaryOr
Selected test: org.apache.commons.functor.core.composite.TestConditionalBinaryPredicate
Selected 668 out of 668 tests (100%)
Selected 668 out of 668 tests (100%)
Checkout 4c73da5e2272702521bb61e5b4a94c3e8f4547f9
Selected test: org.apache.commons.functor.adapter.TestBinaryFunctionBinaryProcedure
Selected test: org.apache.commons.functor.core.comparator.TestComparatorFunction
Selected test: org.apache.commons.functor.aggregator.functions.IntMedianValueAggregatorFunctionTest
Selected test: org.apache.commons.functor.aggregator.functions.DoubleMeanValueAggregatorFunctionTest
Selected test: org.apache.commons.functor.core.TestRightIdentity
Selected test: org.apache.commons.functor.core.TestLeftIdentity
Selected test: org.apache.commons.functor.adapter.TestIgnoreLeftProcedure
Selected test: org.apache.commons.functor.adapter.TestBoundNullaryPredicate
Selected test: org.apache.commons.functor.TestAlgorithms
Selected test: org.apache.commons.functor.aggregator.functions.IntMeanValueAggregatorFunctionTest
Selected test: org.apache.commons.functor.adapter.TestIgnoreRightProcedure
Selected test: org.apache.commons.functor.core.composite.TestBinaryCompositeBinaryFunction
Selected test: org.apache.commons.functor.core.composite.TestTransposedPredicate
Selected test: org.apache.commons.functor.core.composite.TestAnd
Selected test: org.apache.commons.functor.core.TestOffset
Selected test: org.apache.commons.functor.BaseFunctorTest
Selected test: org.apache.commons.functor.core.algorithm.TestFoldLeft
Selected test: org.apache.commons.functor.aggregator.AbstractTimedAggregatorTest
Selected test: org.apache.commons.functor.adapter.TestFunctionProcedure
Selected test: org.apache.commons.functor.core.composite.TestConditionalBinaryFunction
Selected test: org.apache.commons.functor.adapter.TestProcedureProcedure
Selected test: org.apache.commons.functor.core.comparator.TestIsNotEquivalent
Selected test: org.apache.commons.functor.core.comparator.TestMin
Selected test: org.apache.commons.functor.core.composite.TestConditionalPredicate
Selected test: org.apache.commons.functor.aggregator.functions.IntMaxAggregatorBinaryFunctionTest
Selected test: org.apache.commons.functor.aggregator.ArrayListBackedAggregatorTest
Selected test: org.apache.commons.functor.core.composite.TestCompositeBinaryFunction
Selected test: org.apache.commons.functor.core.composite.TestDoWhileNullaryProcedure
Selected test: org.apache.commons.functor.core.composite.TestConditionalNullaryProcedure
Selected test: org.apache.commons.functor.example.map.TestFixedSizeMap
Selected test: org.apache.commons.functor.example.FlexiMapExample
Selected test: org.apache.commons.functor.core.composite.TestNullaryNot
Selected test: org.apache.commons.functor.core.composite.TestConditionalNullaryFunction
Selected test: org.apache.commons.functor.core.TestIdentity
Selected test: org.apache.commons.functor.core.TestNoOp
Selected test: org.apache.commons.functor.core.composite.TestCompositeFunction
Selected test: org.apache.commons.functor.aggregator.functions.IntMaxAggregatorFunctionTest
Selected test: org.apache.commons.functor.range.TestLongRange
Selected test: org.apache.commons.functor.core.composite.TestCompositeBinaryPredicate
Selected test: org.apache.commons.functor.range.TestEndpoint
Selected test: org.apache.commons.functor.core.composite.TestTransposedFunction
Selected test: org.apache.commons.functor.core.algorithm.TestRemoveMatching
Selected test: org.apache.commons.functor.core.comparator.BaseComparisonPredicateTest
Selected test: org.apache.commons.functor.example.kata.two.TestBinaryChop
Selected test: org.apache.commons.functor.adapter.TestLeftBoundProcedure
Selected test: org.apache.commons.functor.adapter.TestRightBoundProcedure
Selected test: org.apache.commons.functor.core.TestIsNotEqual
Selected test: org.apache.commons.functor.example.map.TestLazyMap
Selected test: org.apache.commons.functor.generator.loop.TestIteratorToGeneratorAdapter
Selected test: org.apache.commons.functor.adapter.TestNullaryFunctionNullaryProcedure
Selected test: org.apache.commons.functor.core.composite.TestNullaryAnd
Selected test: org.apache.commons.functor.core.TestIsSame
Selected test: org.apache.commons.functor.adapter.TestBinaryPredicateBinaryFunction
Selected test: org.apache.commons.functor.generator.loop.TestTransformedGenerator
Selected test: org.apache.commons.functor.core.TestIsEqual
Selected test: org.apache.commons.functor.adapter.TestBinaryProcedureProcedure
Selected test: org.apache.commons.functor.adapter.TestProcedureFunction
Selected test: org.apache.commons.functor.adapter.TestNullaryPredicateNullaryFunction
Selected test: org.apache.commons.functor.core.composite.TestAbstractLoopNullaryProcedure
Selected test: org.apache.commons.functor.core.composite.TestTransformedBinaryProcedure
Selected test: org.apache.commons.functor.example.map.TestPredicatedMap
Selected test: org.apache.commons.functor.adapter.TestIgnoreLeftFunction
Selected test: org.apache.commons.functor.aggregator.functions.DoubleMaxAggregatorBinaryFunctionTest
Selected test: org.apache.commons.functor.aggregator.functions.IntPercentileAggregatorFunctionTest
Selected test: org.apache.commons.functor.aggregator.AbstractListBackedAggregatorTest
Selected test: org.apache.commons.functor.core.algorithm.TestFindWithinGenerator
Selected test: org.apache.commons.functor.adapter.TestNullaryFunctionNullaryPredicate
Selected test: org.apache.commons.functor.core.comparator.TestComparableComparator
Selected test: org.apache.commons.functor.generator.loop.TestGenerateUntil
Selected test: org.apache.commons.functor.adapter.TestBinaryFunctionFunction
Selected test: org.apache.commons.functor.core.algorithm.TestUntilDo
Selected test: org.apache.commons.functor.core.comparator.TestIsGreaterThanOrEqual
Selected test: org.apache.commons.functor.core.composite.TestBinaryOr
Selected test: org.apache.commons.functor.core.composite.TestBinaryNot
Selected test: org.apache.commons.functor.adapter.TestLeftBoundPredicate
Selected test: org.apache.commons.functor.core.TestConstant
Selected test: org.apache.commons.functor.core.collection.TestSize
Selected test: org.apache.commons.functor.core.algorithm.TestInPlaceTransform
Selected test: org.apache.commons.functor.core.composite.TestBinarySequence
Selected test: org.apache.commons.functor.adapter.TestIgnoreLeftPredicate
Selected test: org.apache.commons.functor.core.composite.TestNullaryOr
Selected test: org.apache.commons.functor.range.TestCharacterRange
Selected test: org.apache.commons.functor.core.algorithm.TestGeneratorContains
Selected test: org.apache.commons.functor.core.composite.TestConditionalProcedure
Selected test: org.apache.commons.functor.core.comparator.TestIsLessThanOrEqual
Selected test: org.apache.commons.functor.adapter.TestNullaryFunctionFunction
Selected test: org.apache.commons.functor.adapter.TestFullyBoundNullaryPredicate
Selected test: org.apache.commons.functor.core.comparator.TestIsEquivalent
Selected test: org.apache.commons.functor.core.composite.TestTransposedProcedure
Selected test: org.apache.commons.functor.adapter.TestBinaryPredicatePredicate
Selected test: org.apache.commons.functor.adapter.TestFullyBoundNullaryFunction
Selected test: org.apache.commons.functor.core.composite.TestComposite
Selected test: org.apache.commons.functor.core.comparator.TestIsWithinRange
Selected test: org.apache.commons.functor.core.collection.TestTransformedIterator
Selected test: org.apache.commons.functor.core.collection.TestIsEmpty
Selected test: org.apache.commons.functor.range.TestDoubleRange
Selected test: org.apache.commons.functor.core.composite.TestConditionalNullaryPredicate
Selected test: org.apache.commons.functor.core.collection.TestFilteredIterable
Selected test: org.apache.commons.functor.aggregator.AbstractNoStoreAggregatorTest
Selected test: org.apache.commons.functor.adapter.TestFunctionPredicate
Selected test: org.apache.commons.functor.adapter.TestIgnoreRightFunction
Selected test: org.apache.commons.functor.core.composite.TestBinaryAnd
Selected test: org.apache.commons.functor.core.composite.TestNot
Selected test: org.apache.commons.functor.adapter.TestNullaryProcedureNullaryFunction
Selected test: org.apache.commons.functor.core.TestIsNotNull
Selected test: org.apache.commons.functor.adapter.TestBinaryFunctionBinaryPredicate
Selected test: org.apache.commons.functor.aggregator.functions.DoubleSumAggregatorFunctionTest
Selected test: org.apache.commons.functor.adapter.TestBoundNullaryProcedure
Selected test: org.apache.commons.functor.aggregator.functions.IntSumAggregatorBinaryFunctionTest
Selected test: org.apache.commons.functor.core.algorithm.TestFoldRight
Selected test: org.apache.commons.functor.core.composite.TestConditionalFunction
Selected test: org.apache.commons.functor.adapter.TestNullaryPredicatePredicate
Selected test: org.apache.commons.functor.core.composite.TestCompositeProcedure
Selected test: org.apache.commons.functor.core.comparator.TestMax
Selected test: org.apache.commons.functor.core.algorithm.TestIndexOfInGenerator
Selected test: org.apache.commons.functor.generator.loop.TestGenerateWhile
Selected test: org.apache.commons.functor.core.composite.TestTransformedNullaryFunction
Selected test: org.apache.commons.functor.core.collection.TestIsElementOf
Selected test: org.apache.commons.functor.core.comparator.TestIsLessThan
Selected test: org.apache.commons.functor.aggregator.functions.IntSumAggregatorFunctionTest
Selected test: org.apache.commons.functor.core.algorithm.TestDoUntil
Selected test: org.apache.commons.functor.generator.loop.TestUntilGenerate
Selected test: org.apache.commons.functor.adapter.TestRightBoundPredicate
Selected test: org.apache.commons.functor.core.TestIsInstance
Selected test: org.apache.commons.functor.example.kata.one.SupermarketPricingExample
Selected test: org.apache.commons.functor.core.composite.TestConditional
Selected test: org.apache.commons.functor.core.composite.TestWhileDoNullaryProcedure
Selected test: org.apache.commons.functor.aggregator.functions.DoubleMaxAggregatorFunctionTest
Selected test: org.apache.commons.functor.core.composite.TestConditionalBinaryProcedure
Selected test: org.apache.commons.functor.adapter.TestLeftBoundFunction
Selected test: org.apache.commons.functor.core.composite.TestOr
Selected test: org.apache.commons.functor.core.collection.TestFilteredIterator
Selected test: org.apache.commons.functor.core.composite.TestNullarySequence
Selected test: org.apache.commons.functor.example.lines.TestLines
Selected test: org.apache.commons.functor.core.algorithm.TestRetainMatching
Selected test: org.apache.commons.functor.core.algorithm.TestRecursiveEvaluation
Selected test: org.apache.commons.functor.generator.loop.TestLoopGenerator
Selected test: org.apache.commons.functor.generator.loop.TestWhileGenerate
Selected test: org.apache.commons.functor.aggregator.functions.DoubleMedianValueAggregatorFunctionTest
Selected test: org.apache.commons.functor.generator.TestBaseGenerator
Selected test: org.apache.commons.functor.adapter.TestBinaryProcedureBinaryFunction
Selected test: org.apache.commons.functor.range.TestFloatRange
Selected test: org.apache.commons.functor.core.composite.TestCompositePredicate
Selected test: org.apache.commons.functor.aggregator.functions.IntCountAggregatorBinaryFunctionTest
Selected test: org.apache.commons.functor.core.algorithm.TestWhileDo
Selected test: org.apache.commons.functor.aggregator.functions.DoubleSumAggregatorBinaryFunctionTest
Selected test: org.apache.commons.functor.adapter.TestFullyBoundNullaryProcedure
Selected test: org.apache.commons.functor.generator.TestFilteredGenerator
Selected test: org.apache.commons.functor.generator.util.TestEachElement
Selected test: org.apache.commons.functor.adapter.TestPredicateFunction
Selected test: org.apache.commons.functor.range.TestIntegerRange
Selected test: org.apache.commons.functor.core.TestIsNull
Selected test: org.apache.commons.functor.core.composite.TestTransformedBinaryFunction
Selected test: org.apache.commons.functor.core.TestIsNotSame
Selected test: org.apache.commons.functor.core.composite.TestTransformedNullaryProcedure
Selected test: org.apache.commons.functor.adapter.TestRightBoundFunction
Selected test: org.apache.commons.functor.aggregator.functions.DoublePercentileAggregatorFunctionTest
Selected test: org.apache.commons.functor.core.composite.TestSequence
Selected test: org.apache.commons.functor.adapter.TestBoundNullaryFunction
Selected test: org.apache.commons.functor.core.comparator.TestIsGreaterThan
Selected test: org.apache.commons.functor.adapter.TestIgnoreRightPredicate
Selected test: org.apache.commons.functor.core.TestLimit
Selected test: org.apache.commons.functor.core.algorithm.TestDoWhile
Selected test: org.apache.commons.functor.example.QuicksortExample
Selected test: org.apache.commons.functor.core.composite.TestConditionalBinaryPredicate
Selected 846 out of 853 tests (99%)
Selected 853 out of 853 tests (100%)
Checkout d6beb0438ed3432cd4246a62b821735540b45431
Selected test: org.apache.commons.functor.TestAlgorithms
Selected test: org.apache.commons.functor.range.TestLongRange
Selected test: org.apache.commons.functor.range.TestEndpoint
Selected test: org.apache.commons.functor.example.kata.two.TestBinaryChop
Selected test: org.apache.commons.functor.generator.loop.TestTransformedGenerator
Selected test: org.apache.commons.functor.generator.loop.TestGenerateUntil
Selected test: org.apache.commons.functor.range.TestCharacterRange
Selected test: org.apache.commons.functor.range.TestDoubleRange
Selected test: org.apache.commons.functor.generator.loop.TestGenerateWhile
Selected test: org.apache.commons.functor.generator.loop.TestUntilGenerate
Selected test: org.apache.commons.functor.generator.loop.TestWhileGenerate
Selected test: org.apache.commons.functor.range.TestFloatRange
Selected test: org.apache.commons.functor.generator.TestFilteredGenerator
Selected test: org.apache.commons.functor.range.TestIntegerRange
Selected 256 out of 853 tests (30%)
Selected 853 out of 853 tests (100%)
Checkout 56035111e4879168106d68786042538462220765
Selected test: org.apache.commons.functor.TestAlgorithms
Selected test: org.apache.commons.functor.range.TestLongRange
Selected test: org.apache.commons.functor.example.kata.two.TestBinaryChop
Selected test: org.apache.commons.functor.generator.loop.TestTransformedGenerator
Selected test: org.apache.commons.functor.generator.loop.TestGenerateUntil
Selected test: org.apache.commons.functor.range.TestCharacterRange
Selected test: org.apache.commons.functor.range.TestDoubleRange
Selected test: org.apache.commons.functor.generator.loop.TestGenerateWhile
Selected test: org.apache.commons.functor.generator.loop.TestUntilGenerate
Selected test: org.apache.commons.functor.generator.loop.TestWhileGenerate
Selected test: org.apache.commons.functor.range.TestFloatRange
Selected test: org.apache.commons.functor.generator.TestFilteredGenerator
Selected test: org.apache.commons.functor.range.TestIntegerRange
Selected 252 out of 853 tests (30%)
Selected 853 out of 853 tests (100%)
Checkout 10c78767a3cc6937733c3a85ea20b6835c5d9bfc
Selected test: org.apache.commons.functor.TestAlgorithms
Selected test: org.apache.commons.functor.range.TestLongRange
Selected test: org.apache.commons.functor.example.kata.two.TestBinaryChop
Selected test: org.apache.commons.functor.generator.loop.TestTransformedGenerator
Selected test: org.apache.commons.functor.generator.loop.TestGenerateUntil
Selected test: org.apache.commons.functor.range.TestCharacterRange
Selected test: org.apache.commons.functor.range.TestDoubleRange
Selected test: org.apache.commons.functor.generator.loop.TestGenerateWhile
Selected test: org.apache.commons.functor.generator.loop.TestUntilGenerate
Selected test: org.apache.commons.functor.generator.loop.TestWhileGenerate
Selected test: org.apache.commons.functor.range.TestFloatRange
Selected test: org.apache.commons.functor.generator.TestFilteredGenerator
Selected test: org.apache.commons.functor.range.TestIntegerRange
Selected 252 out of 853 tests (30%)
Selected 853 out of 853 tests (100%)
Checkout 0bb123752e2f7c225a5322d9f00cfd6df1a75510
Selected test: org.apache.commons.functor.TestAlgorithms
Selected test: org.apache.commons.functor.core.algorithm.TestFoldLeft
Selected test: org.apache.commons.functor.example.map.TestFixedSizeMap
Selected test: org.apache.commons.functor.range.TestLongRange
Selected test: org.apache.commons.functor.generator.loop.TestIteratorToGeneratorAdapter
Selected test: org.apache.commons.functor.generator.loop.TestTransformedGenerator
Selected test: org.apache.commons.functor.core.algorithm.TestFindWithinGenerator
Selected test: org.apache.commons.functor.generator.loop.TestGenerateUntil
Selected test: org.apache.commons.functor.range.TestCharacterRange
Selected test: org.apache.commons.functor.core.algorithm.TestGeneratorContains
Selected test: org.apache.commons.functor.range.TestDoubleRange
Selected test: org.apache.commons.functor.core.algorithm.TestFoldRight
Selected test: org.apache.commons.functor.core.algorithm.TestIndexOfInGenerator
Selected test: org.apache.commons.functor.generator.loop.TestGenerateWhile
Selected test: org.apache.commons.functor.generator.loop.TestUntilGenerate
Selected test: org.apache.commons.functor.example.lines.TestLines
Selected test: org.apache.commons.functor.generator.loop.TestLoopGenerator
Selected test: org.apache.commons.functor.generator.loop.TestWhileGenerate
Selected test: org.apache.commons.functor.generator.TestBaseGenerator
Selected test: org.apache.commons.functor.range.TestFloatRange
Selected test: org.apache.commons.functor.generator.TestFilteredGenerator
Selected test: org.apache.commons.functor.generator.util.TestEachElement
Selected test: org.apache.commons.functor.range.TestIntegerRange
Selected test: org.apache.commons.functor.example.QuicksortExample
Selected 292 out of 853 tests (34%)
Selected 853 out of 853 tests (100%)
Checkout 64dfb78b1f5d5fd7cfcd8c8c5c3b0f58eba09d0a
Selected 853 out of 853 tests (100%)
Checkout 1eec0a2f3ad3180173478a54b8ca12bca459a844
Selected 853 out of 853 tests (100%)
Checkout 1004abda7fe5638860661f4cbe81be2e4bddf90c
Selected test: org.apache.commons.functor.TestAlgorithms
Selected test: org.apache.commons.functor.core.algorithm.TestFoldLeft
Selected test: org.apache.commons.functor.example.map.TestFixedSizeMap
Selected test: org.apache.commons.functor.range.TestLongRange
Selected test: org.apache.commons.functor.example.kata.two.TestBinaryChop
Selected test: org.apache.commons.functor.generator.loop.TestIteratorToGeneratorAdapter
Selected test: org.apache.commons.functor.generator.loop.TestTransformedGenerator
Selected test: org.apache.commons.functor.core.algorithm.TestFindWithinGenerator
Selected test: org.apache.commons.functor.generator.loop.TestGenerateUntil
Selected test: org.apache.commons.functor.range.TestCharacterRange
Selected test: org.apache.commons.functor.core.algorithm.TestGeneratorContains
Selected test: org.apache.commons.functor.range.TestDoubleRange
Selected test: org.apache.commons.functor.core.algorithm.TestFoldRight
Selected test: org.apache.commons.functor.core.algorithm.TestIndexOfInGenerator
Selected test: org.apache.commons.functor.generator.loop.TestGenerateWhile
Selected test: org.apache.commons.functor.generator.loop.TestUntilGenerate
Selected test: org.apache.commons.functor.generator.loop.TestWhileGenerate
Selected test: org.apache.commons.functor.range.TestFloatRange
Selected test: org.apache.commons.functor.generator.TestFilteredGenerator
Selected test: org.apache.commons.functor.generator.util.TestEachElement
Selected test: org.apache.commons.functor.range.TestIntegerRange
Selected test: org.apache.commons.functor.example.QuicksortExample
Selected 287 out of 853 tests (34%)
Selected 853 out of 853 tests (100%)
Checkout 5db233e4c3e2e64bb39b07fa501943839b875d3f
Selected test: org.apache.commons.functor.TestAlgorithms
Selected test: org.apache.commons.functor.range.TestLongRange
Selected test: org.apache.commons.functor.example.kata.two.TestBinaryChop
Selected test: org.apache.commons.functor.generator.loop.TestTransformedGenerator
Selected test: org.apache.commons.functor.generator.loop.TestGenerateUntil
Selected test: org.apache.commons.functor.range.TestCharacterRange
Selected test: org.apache.commons.functor.range.TestDoubleRange
Selected test: org.apache.commons.functor.generator.loop.TestGenerateWhile
Selected test: org.apache.commons.functor.generator.loop.TestUntilGenerate
Selected test: org.apache.commons.functor.generator.loop.TestWhileGenerate
Selected test: org.apache.commons.functor.range.TestFloatRange
Selected test: org.apache.commons.functor.generator.TestFilteredGenerator
Selected test: org.apache.commons.functor.range.TestIntegerRange
Selected 252 out of 853 tests (30%)
Selected 853 out of 853 tests (100%)
Checkout a4c8160726a1abb87560c568861719dfe3698379
Selected test: org.apache.commons.functor.adapter.TestBinaryFunctionBinaryProcedure
Selected test: org.apache.commons.functor.core.comparator.TestComparatorFunction
Selected test: org.apache.commons.functor.aggregator.functions.IntMedianValueAggregatorFunctionTest
Selected test: org.apache.commons.functor.aggregator.functions.DoubleMeanValueAggregatorFunctionTest
Selected test: org.apache.commons.functor.core.TestRightIdentity
Selected test: org.apache.commons.functor.core.TestLeftIdentity
Selected test: org.apache.commons.functor.adapter.TestIgnoreLeftProcedure
Selected test: org.apache.commons.functor.adapter.TestBoundNullaryPredicate
Selected test: org.apache.commons.functor.TestAlgorithms
Selected test: org.apache.commons.functor.aggregator.functions.IntMeanValueAggregatorFunctionTest
Selected test: org.apache.commons.functor.adapter.TestIgnoreRightProcedure
Selected test: org.apache.commons.functor.core.composite.TestBinaryCompositeBinaryFunction
Selected test: org.apache.commons.functor.core.composite.TestTransposedPredicate
Selected test: org.apache.commons.functor.core.composite.TestAnd
Selected test: org.apache.commons.functor.core.TestOffset
Selected test: org.apache.commons.functor.BaseFunctorTest
Selected test: org.apache.commons.functor.core.algorithm.TestFoldLeft
Selected test: org.apache.commons.functor.aggregator.AbstractTimedAggregatorTest
Selected test: org.apache.commons.functor.adapter.TestFunctionProcedure
Selected test: org.apache.commons.functor.core.composite.TestConditionalBinaryFunction
Selected test: org.apache.commons.functor.adapter.TestProcedureProcedure
Selected test: org.apache.commons.functor.core.comparator.TestIsNotEquivalent
Selected test: org.apache.commons.functor.core.comparator.TestMin
Selected test: org.apache.commons.functor.core.composite.TestConditionalPredicate
Selected test: org.apache.commons.functor.aggregator.functions.IntMaxAggregatorBinaryFunctionTest
Selected test: org.apache.commons.functor.aggregator.ArrayListBackedAggregatorTest
Selected test: org.apache.commons.functor.core.composite.TestCompositeBinaryFunction
Selected test: org.apache.commons.functor.core.composite.TestDoWhileNullaryProcedure
Selected test: org.apache.commons.functor.core.composite.TestConditionalNullaryProcedure
Selected test: org.apache.commons.functor.example.map.TestFixedSizeMap
Selected test: org.apache.commons.functor.example.FlexiMapExample
Selected test: org.apache.commons.functor.core.composite.TestNullaryNot
Selected test: org.apache.commons.functor.core.composite.TestConditionalNullaryFunction
Selected test: org.apache.commons.functor.core.TestIdentity
Selected test: org.apache.commons.functor.core.TestNoOp
Selected test: org.apache.commons.functor.core.composite.TestCompositeFunction
Selected test: org.apache.commons.functor.aggregator.functions.IntMaxAggregatorFunctionTest
Selected test: org.apache.commons.functor.range.TestLongRange
Selected test: org.apache.commons.functor.core.composite.TestCompositeBinaryPredicate
Selected test: org.apache.commons.functor.core.composite.TestTransposedFunction
Selected test: org.apache.commons.functor.core.algorithm.TestRemoveMatching
Selected test: org.apache.commons.functor.core.comparator.BaseComparisonPredicateTest
Selected test: org.apache.commons.functor.example.kata.two.TestBinaryChop
Selected test: org.apache.commons.functor.adapter.TestLeftBoundProcedure
Selected test: org.apache.commons.functor.adapter.TestRightBoundProcedure
Selected test: org.apache.commons.functor.core.TestIsNotEqual
Selected test: org.apache.commons.functor.example.map.TestLazyMap
Selected test: org.apache.commons.functor.generator.loop.TestIteratorToGeneratorAdapter
Selected test: org.apache.commons.functor.adapter.TestNullaryFunctionNullaryProcedure
Selected test: org.apache.commons.functor.core.composite.TestNullaryAnd
Selected test: org.apache.commons.functor.core.TestIsSame
Selected test: org.apache.commons.functor.adapter.TestBinaryPredicateBinaryFunction
Selected test: org.apache.commons.functor.generator.loop.TestTransformedGenerator
Selected test: org.apache.commons.functor.core.TestIsEqual
Selected test: org.apache.commons.functor.adapter.TestBinaryProcedureProcedure
Selected test: org.apache.commons.functor.adapter.TestProcedureFunction
Selected test: org.apache.commons.functor.adapter.TestNullaryPredicateNullaryFunction
Selected test: org.apache.commons.functor.core.composite.TestAbstractLoopNullaryProcedure
Selected test: org.apache.commons.functor.core.composite.TestTransformedBinaryProcedure
Selected test: org.apache.commons.functor.example.map.TestPredicatedMap
Selected test: org.apache.commons.functor.adapter.TestIgnoreLeftFunction
Selected test: org.apache.commons.functor.aggregator.functions.DoubleMaxAggregatorBinaryFunctionTest
Selected test: org.apache.commons.functor.aggregator.functions.IntPercentileAggregatorFunctionTest
Selected test: org.apache.commons.functor.aggregator.AbstractListBackedAggregatorTest
Selected test: org.apache.commons.functor.core.algorithm.TestFindWithinGenerator
Selected test: org.apache.commons.functor.adapter.TestNullaryFunctionNullaryPredicate
Selected test: org.apache.commons.functor.core.comparator.TestComparableComparator
Selected test: org.apache.commons.functor.generator.loop.TestGenerateUntil
Selected test: org.apache.commons.functor.adapter.TestBinaryFunctionFunction
Selected test: org.apache.commons.functor.core.algorithm.TestUntilDo
Selected test: org.apache.commons.functor.core.comparator.TestIsGreaterThanOrEqual
Selected test: org.apache.commons.functor.core.composite.TestBinaryOr
Selected test: org.apache.commons.functor.core.composite.TestBinaryNot
Selected test: org.apache.commons.functor.adapter.TestLeftBoundPredicate
Selected test: org.apache.commons.functor.core.TestConstant
Selected test: org.apache.commons.functor.core.collection.TestSize
Selected test: org.apache.commons.functor.core.algorithm.TestInPlaceTransform
Selected test: org.apache.commons.functor.core.composite.TestBinarySequence
Selected test: org.apache.commons.functor.adapter.TestIgnoreLeftPredicate
Selected test: org.apache.commons.functor.core.composite.TestNullaryOr
Selected test: org.apache.commons.functor.range.TestCharacterRange
Selected test: org.apache.commons.functor.core.algorithm.TestGeneratorContains
Selected test: org.apache.commons.functor.core.composite.TestConditionalProcedure
Selected test: org.apache.commons.functor.core.comparator.TestIsLessThanOrEqual
Selected test: org.apache.commons.functor.adapter.TestNullaryFunctionFunction
Selected test: org.apache.commons.functor.adapter.TestFullyBoundNullaryPredicate
Selected test: org.apache.commons.functor.core.comparator.TestIsEquivalent
Selected test: org.apache.commons.functor.core.composite.TestTransposedProcedure
Selected test: org.apache.commons.functor.adapter.TestBinaryPredicatePredicate
Selected test: org.apache.commons.functor.adapter.TestFullyBoundNullaryFunction
Selected test: org.apache.commons.functor.core.comparator.TestIsWithinRange
Selected test: org.apache.commons.functor.core.collection.TestTransformedIterator
Selected test: org.apache.commons.functor.core.collection.TestIsEmpty
Selected test: org.apache.commons.functor.range.TestDoubleRange
Selected test: org.apache.commons.functor.core.composite.TestConditionalNullaryPredicate
Selected test: org.apache.commons.functor.core.collection.TestFilteredIterable
Selected test: org.apache.commons.functor.aggregator.AbstractNoStoreAggregatorTest
Selected test: org.apache.commons.functor.adapter.TestFunctionPredicate
Selected test: org.apache.commons.functor.adapter.TestIgnoreRightFunction
Selected test: org.apache.commons.functor.core.composite.TestBinaryAnd
Selected test: org.apache.commons.functor.core.composite.TestNot
Selected test: org.apache.commons.functor.adapter.TestNullaryProcedureNullaryFunction
Selected test: org.apache.commons.functor.core.TestIsNotNull
Selected test: org.apache.commons.functor.adapter.TestBinaryFunctionBinaryPredicate
Selected test: org.apache.commons.functor.aggregator.functions.DoubleSumAggregatorFunctionTest
Selected test: org.apache.commons.functor.adapter.TestBoundNullaryProcedure
Selected test: org.apache.commons.functor.aggregator.functions.IntSumAggregatorBinaryFunctionTest
Selected test: org.apache.commons.functor.core.algorithm.TestFoldRight
Selected test: org.apache.commons.functor.core.composite.TestConditionalFunction
Selected test: org.apache.commons.functor.adapter.TestNullaryPredicatePredicate
Selected test: org.apache.commons.functor.core.composite.TestCompositeProcedure
Selected test: org.apache.commons.functor.core.comparator.TestMax
Selected test: org.apache.commons.functor.core.algorithm.TestIndexOfInGenerator
Selected test: org.apache.commons.functor.generator.loop.TestGenerateWhile
Selected test: org.apache.commons.functor.core.composite.TestTransformedNullaryFunction
Selected test: org.apache.commons.functor.core.collection.TestIsElementOf
Selected test: org.apache.commons.functor.core.comparator.TestIsLessThan
Selected test: org.apache.commons.functor.aggregator.functions.IntSumAggregatorFunctionTest
Selected test: org.apache.commons.functor.core.algorithm.TestDoUntil
Selected test: org.apache.commons.functor.generator.loop.TestUntilGenerate
Selected test: org.apache.commons.functor.adapter.TestRightBoundPredicate
Selected test: org.apache.commons.functor.core.TestIsInstance
Selected test: org.apache.commons.functor.example.kata.one.SupermarketPricingExample
Selected test: org.apache.commons.functor.core.composite.TestWhileDoNullaryProcedure
Selected test: org.apache.commons.functor.aggregator.functions.DoubleMaxAggregatorFunctionTest
Selected test: org.apache.commons.functor.core.composite.TestConditionalBinaryProcedure
Selected test: org.apache.commons.functor.adapter.TestLeftBoundFunction
Selected test: org.apache.commons.functor.core.composite.TestOr
Selected test: org.apache.commons.functor.core.collection.TestFilteredIterator
Selected test: org.apache.commons.functor.core.composite.TestNullarySequence
Selected test: org.apache.commons.functor.example.lines.TestLines
Selected test: org.apache.commons.functor.core.algorithm.TestRetainMatching
Selected test: org.apache.commons.functor.generator.loop.TestLoopGenerator
Selected test: org.apache.commons.functor.core.algorithm.TestRecursiveEvaluation
Selected test: org.apache.commons.functor.generator.loop.TestWhileGenerate
Selected test: org.apache.commons.functor.aggregator.functions.DoubleMedianValueAggregatorFunctionTest
Selected test: org.apache.commons.functor.generator.TestBaseGenerator
Selected test: org.apache.commons.functor.adapter.TestBinaryProcedureBinaryFunction
Selected test: org.apache.commons.functor.range.TestFloatRange
Selected test: org.apache.commons.functor.core.composite.TestCompositePredicate
Selected test: org.apache.commons.functor.aggregator.functions.IntCountAggregatorBinaryFunctionTest
Selected test: org.apache.commons.functor.core.algorithm.TestWhileDo
Selected test: org.apache.commons.functor.aggregator.functions.DoubleSumAggregatorBinaryFunctionTest
Selected test: org.apache.commons.functor.adapter.TestFullyBoundNullaryProcedure
Selected test: org.apache.commons.functor.generator.util.TestEachElement
Selected test: org.apache.commons.functor.adapter.TestPredicateFunction
Selected test: org.apache.commons.functor.range.TestIntegerRange
Selected test: org.apache.commons.functor.core.TestIsNull
Selected test: org.apache.commons.functor.core.composite.TestTransformedBinaryFunction
Selected test: org.apache.commons.functor.core.TestIsNotSame
Selected test: org.apache.commons.functor.core.composite.TestTransformedNullaryProcedure
Selected test: org.apache.commons.functor.adapter.TestRightBoundFunction
Selected test: org.apache.commons.functor.aggregator.functions.DoublePercentileAggregatorFunctionTest
Selected test: org.apache.commons.functor.core.composite.TestSequence
Selected test: org.apache.commons.functor.adapter.TestBoundNullaryFunction
Selected test: org.apache.commons.functor.core.comparator.TestIsGreaterThan
Selected test: org.apache.commons.functor.adapter.TestIgnoreRightPredicate
Selected test: org.apache.commons.functor.core.TestLimit
Selected test: org.apache.commons.functor.core.algorithm.TestDoWhile
Selected test: org.apache.commons.functor.example.QuicksortExample
Selected test: org.apache.commons.functor.core.composite.TestConditionalBinaryPredicate
Selected 831 out of 853 tests (97%)
Selected 853 out of 853 tests (100%)
Checkout 9935540e7415f2c78e512eba79e79af92fd79b2f
Selected test: org.apache.commons.functor.aggregator.AbstractTimedAggregatorTest
Selected 4 out of 853 tests (0%)
Selected 853 out of 853 tests (100%)
Checkout 836eea72d53575a750d3ae56566b895df9eebbb2
Selected test: org.apache.commons.functor.range.TestLongRange
Selected test: org.apache.commons.functor.range.TestCharacterRange
Selected test: org.apache.commons.functor.range.TestDoubleRange
Selected test: org.apache.commons.functor.range.TestFloatRange
Selected test: org.apache.commons.functor.range.TestIntegerRange
Selected 201 out of 853 tests (24%)
Selected 853 out of 853 tests (100%)
Checkout 38720128bc84de1535a7844f106f7abf8e2576e1
Selected test: org.apache.commons.functor.TestAlgorithms
Selected test: org.apache.commons.functor.core.algorithm.TestFoldLeft
Selected test: org.apache.commons.functor.example.map.TestFixedSizeMap
Selected test: org.apache.commons.functor.range.TestLongRange
Selected test: org.apache.commons.functor.example.kata.two.TestBinaryChop
Selected test: org.apache.commons.functor.generator.loop.TestIteratorToGeneratorAdapter
Selected test: org.apache.commons.functor.generator.loop.TestTransformedGenerator
Selected test: org.apache.commons.functor.core.algorithm.TestFindWithinGenerator
Selected test: org.apache.commons.functor.generator.loop.TestGenerateUntil
Selected test: org.apache.commons.functor.range.TestCharacterRange
Selected test: org.apache.commons.functor.core.algorithm.TestGeneratorContains
Selected test: org.apache.commons.functor.range.TestDoubleRange
Selected test: org.apache.commons.functor.core.algorithm.TestFoldRight
Selected test: org.apache.commons.functor.core.algorithm.TestIndexOfInGenerator
Selected test: org.apache.commons.functor.generator.loop.TestGenerateWhile
Selected test: org.apache.commons.functor.generator.loop.TestUntilGenerate
Selected test: org.apache.commons.functor.generator.loop.TestWhileGenerate
Selected test: org.apache.commons.functor.range.TestFloatRange
Selected test: org.apache.commons.functor.generator.TestFilteredGenerator
Selected test: org.apache.commons.functor.generator.util.TestEachElement
Selected test: org.apache.commons.functor.range.TestIntegerRange
Selected test: org.apache.commons.functor.example.QuicksortExample
Selected 287 out of 853 tests (34%)
Selected 853 out of 853 tests (100%)
Checkout 2941c23f509d3a306d6f22aa8ebf912c70b66528
Selected test: org.apache.commons.functor.TestAlgorithms
Selected test: org.apache.commons.functor.core.algorithm.TestFoldLeft
Selected test: org.apache.commons.functor.example.map.TestFixedSizeMap
Selected test: org.apache.commons.functor.range.TestLongRange
Selected test: org.apache.commons.functor.generator.loop.TestIteratorToGeneratorAdapter
Selected test: org.apache.commons.functor.generator.loop.TestTransformedGenerator
Selected test: org.apache.commons.functor.core.algorithm.TestFindWithinGenerator
Selected test: org.apache.commons.functor.range.TestCharacterRange
Selected test: org.apache.commons.functor.core.algorithm.TestGeneratorContains
Selected test: org.apache.commons.functor.range.TestDoubleRange
Selected test: org.apache.commons.functor.core.algorithm.TestFoldRight
Selected test: org.apache.commons.functor.core.algorithm.TestIndexOfInGenerator
Selected test: org.apache.commons.functor.range.TestFloatRange
Selected test: org.apache.commons.functor.generator.util.TestEachElement
Selected test: org.apache.commons.functor.range.TestIntegerRange
Selected test: org.apache.commons.functor.example.QuicksortExample
Selected 251 out of 853 tests (29%)
Selected 853 out of 853 tests (100%)
Checkout 773002133be1105d2d9d0f4d531b2dc6d1872e35
Selected 853 out of 853 tests (100%)
Checkout 6f0efcb48d419651838607bbaf098bbb464b9185
Selected 853 out of 853 tests (100%)
Checkout 7f0a739dff9c4598f916b7ef530a6363e701a7d0
Selected 853 out of 853 tests (100%)
Checkout 8771fb2958eae862b79462524cf3be5dfbf8fb9c
Selected 853 out of 853 tests (100%)
Checkout 821419684fe450f9c36de15ccd056c7c4f38d2e4
Selected 853 out of 853 tests (100%)
Checkout 3da1a4b1214428c04ca9102ef4567ba61b0ff5be
Selected 853 out of 853 tests (100%)
