-------------------------------------------------------------------------------
Test set: org.apache.commons.functor.example.kata.four.TestSoccer
-------------------------------------------------------------------------------
Tests run: 1, Failures: 0, Errors: 0, Skipped: 0, Time elapsed: 0.025 sec - in org.apache.commons.functor.example.kata.four.TestSoccer
