-------------------------------------------------------------------------------
Test set: org.apache.commons.functor.aggregator.AbstractTimedAggregatorTest
-------------------------------------------------------------------------------
Tests run: 6, Failures: 0, Errors: 0, Skipped: 0, Time elapsed: 3.085 sec - in org.apache.commons.functor.aggregator.AbstractTimedAggregatorTest
