-------------------------------------------------------------------------------
Test set: org.apache.commons.functor.generator.loop.TestGenerateUntil
-------------------------------------------------------------------------------
Tests run: 5, Failures: 0, Errors: 0, Skipped: 0, Time elapsed: 0.003 sec - in org.apache.commons.functor.generator.loop.TestGenerateUntil
