-------------------------------------------------------------------------------
Test set: org.apache.commons.functor.core.algorithm.TestFoldRight
-------------------------------------------------------------------------------
Tests run: 3, Failures: 0, Errors: 0, Skipped: 0, Time elapsed: 0.002 sec - in org.apache.commons.functor.core.algorithm.TestFoldRight
