-------------------------------------------------------------------------------
Test set: org.apache.commons.functor.core.TestIsNotNull
-------------------------------------------------------------------------------
Tests run: 5, Failures: 0, Errors: 0, Skipped: 0, Time elapsed: 0.001 sec - in org.apache.commons.functor.core.TestIsNotNull
