-------------------------------------------------------------------------------
Test set: org.apache.commons.functor.adapter.TestBinaryPredicateBinaryFunction
-------------------------------------------------------------------------------
Tests run: 7, Failures: 0, Errors: 0, Skipped: 0, Time elapsed: 0.006 sec - in org.apache.commons.functor.adapter.TestBinaryPredicateBinaryFunction
