-------------------------------------------------------------------------------
Test set: org.apache.commons.functor.range.TestLongRange
-------------------------------------------------------------------------------
Tests run: 43, Failures: 0, Errors: 0, Skipped: 0, Time elapsed: 0.015 sec - in org.apache.commons.functor.range.TestLongRange
