-------------------------------------------------------------------------------
Test set: org.apache.commons.functor.range.TestCharacterRange
-------------------------------------------------------------------------------
Tests run: 41, Failures: 0, Errors: 0, Skipped: 0, Time elapsed: 0.021 sec - in org.apache.commons.functor.range.TestCharacterRange
