org/apache/commons/fileupload/FileUploadBase$FileUploadIOException.class
org/apache/commons/fileupload/MultipartStream$MalformedStreamException.class
org/apache/commons/fileupload/servlet/ServletFileUpload.class
org/apache/commons/fileupload/FileUploadBase$FileSizeLimitExceededException.class
org/apache/commons/fileupload/RequestContext.class
org/apache/commons/fileupload/FileUploadBase$SizeLimitExceededException.class
org/apache/commons/fileupload/ProgressListener.class
org/apache/commons/fileupload/util/LimitedInputStream.class
org/apache/commons/fileupload/disk/DiskFileItemFactory.class
org/apache/commons/fileupload/FileUploadBase$FileItemIteratorImpl$1.class
org/apache/commons/fileupload/ParameterParser.class
org/apache/commons/fileupload/FileUploadBase$FileItemIteratorImpl$FileItemStreamImpl$1.class
org/apache/commons/fileupload/MultipartStream$IllegalBoundaryException.class
org/apache/commons/fileupload/FileItemHeadersSupport.class
org/apache/commons/fileupload/MultipartStream$ItemInputStream.class
org/apache/commons/fileupload/portlet/PortletFileUpload.class
org/apache/commons/fileupload/util/mime/MimeUtility.class
org/apache/commons/fileupload/DefaultFileItemFactory.class
org/apache/commons/fileupload/util/Closeable.class
org/apache/commons/fileupload/util/mime/Base64Decoder.class
org/apache/commons/fileupload/portlet/PortletRequestContext.class
org/apache/commons/fileupload/FileUpload.class
org/apache/commons/fileupload/FileUploadBase$UnknownSizeException.class
org/apache/commons/fileupload/util/Streams.class
org/apache/commons/fileupload/FileItemFactory.class
org/apache/commons/fileupload/InvalidFileNameException.class
org/apache/commons/fileupload/MultipartStream.class
org/apache/commons/fileupload/servlet/ServletRequestContext.class
org/apache/commons/fileupload/UploadContext.class
org/apache/commons/fileupload/FileUploadBase$FileItemIteratorImpl$FileItemStreamImpl.class
org/apache/commons/fileupload/FileUploadBase$InvalidContentTypeException.class
org/apache/commons/fileupload/FileItem.class
org/apache/commons/fileupload/FileUploadException.class
org/apache/commons/fileupload/FileItemStream.class
org/apache/commons/fileupload/MultipartStream$ProgressNotifier.class
org/apache/commons/fileupload/util/FileItemHeadersImpl.class
org/apache/commons/fileupload/FileUploadBase$FileItemIteratorImpl.class
org/apache/commons/fileupload/disk/DiskFileItem.class
org/apache/commons/fileupload/FileUploadBase.class
org/apache/commons/fileupload/servlet/FileCleanerCleanup.class
org/apache/commons/fileupload/DefaultFileItem.class
org/apache/commons/fileupload/FileUploadBase$IOFileUploadException.class
org/apache/commons/fileupload/FileItemIterator.class
org/apache/commons/fileupload/FileItemHeaders.class
org/apache/commons/fileupload/util/mime/QuotedPrintableDecoder.class
org/apache/commons/fileupload/DiskFileUpload.class
org/apache/commons/fileupload/FileUploadBase$SizeException.class
org/apache/commons/fileupload/FileItemStream$ItemSkippedException.class
org/apache/commons/fileupload/util/mime/ParseException.class
