/Users/taomo/Documents/workspace/bazelProjects/fileUpload/commons-fileupload/src/main/java/org/apache/commons/fileupload/FileUploadException.java
/Users/taomo/Documents/workspace/bazelProjects/fileUpload/commons-fileupload/src/main/java/org/apache/commons/fileupload/util/LimitedInputStream.java
/Users/taomo/Documents/workspace/bazelProjects/fileUpload/commons-fileupload/src/main/java/org/apache/commons/fileupload/RequestContext.java
/Users/taomo/Documents/workspace/bazelProjects/fileUpload/commons-fileupload/src/main/java/org/apache/commons/fileupload/util/FileItemHeadersImpl.java
/Users/taomo/Documents/workspace/bazelProjects/fileUpload/commons-fileupload/src/main/java/org/apache/commons/fileupload/DefaultFileItemFactory.java
/Users/taomo/Documents/workspace/bazelProjects/fileUpload/commons-fileupload/src/main/java/org/apache/commons/fileupload/FileUpload.java
/Users/taomo/Documents/workspace/bazelProjects/fileUpload/commons-fileupload/src/main/java/org/apache/commons/fileupload/InvalidFileNameException.java
/Users/taomo/Documents/workspace/bazelProjects/fileUpload/commons-fileupload/src/main/java/org/apache/commons/fileupload/portlet/PortletFileUpload.java
/Users/taomo/Documents/workspace/bazelProjects/fileUpload/commons-fileupload/src/main/java/org/apache/commons/fileupload/util/mime/MimeUtility.java
/Users/taomo/Documents/workspace/bazelProjects/fileUpload/commons-fileupload/src/main/java/org/apache/commons/fileupload/portlet/PortletRequestContext.java
/Users/taomo/Documents/workspace/bazelProjects/fileUpload/commons-fileupload/src/main/java/org/apache/commons/fileupload/util/mime/QuotedPrintableDecoder.java
/Users/taomo/Documents/workspace/bazelProjects/fileUpload/commons-fileupload/src/main/java/org/apache/commons/fileupload/ParameterParser.java
/Users/taomo/Documents/workspace/bazelProjects/fileUpload/commons-fileupload/src/main/java/org/apache/commons/fileupload/FileItemFactory.java
/Users/taomo/Documents/workspace/bazelProjects/fileUpload/commons-fileupload/src/main/java/org/apache/commons/fileupload/util/package-info.java
/Users/taomo/Documents/workspace/bazelProjects/fileUpload/commons-fileupload/src/main/java/org/apache/commons/fileupload/FileUploadBase.java
/Users/taomo/Documents/workspace/bazelProjects/fileUpload/commons-fileupload/src/main/java/org/apache/commons/fileupload/UploadContext.java
/Users/taomo/Documents/workspace/bazelProjects/fileUpload/commons-fileupload/src/main/java/org/apache/commons/fileupload/FileItemIterator.java
/Users/taomo/Documents/workspace/bazelProjects/fileUpload/commons-fileupload/src/main/java/org/apache/commons/fileupload/servlet/package-info.java
/Users/taomo/Documents/workspace/bazelProjects/fileUpload/commons-fileupload/src/main/java/org/apache/commons/fileupload/package-info.java
/Users/taomo/Documents/workspace/bazelProjects/fileUpload/commons-fileupload/src/main/java/org/apache/commons/fileupload/util/mime/ParseException.java
/Users/taomo/Documents/workspace/bazelProjects/fileUpload/commons-fileupload/src/main/java/org/apache/commons/fileupload/FileItemStream.java
/Users/taomo/Documents/workspace/bazelProjects/fileUpload/commons-fileupload/src/main/java/org/apache/commons/fileupload/util/Closeable.java
/Users/taomo/Documents/workspace/bazelProjects/fileUpload/commons-fileupload/src/main/java/org/apache/commons/fileupload/disk/DiskFileItem.java
/Users/taomo/Documents/workspace/bazelProjects/fileUpload/commons-fileupload/src/main/java/org/apache/commons/fileupload/FileItemHeaders.java
/Users/taomo/Documents/workspace/bazelProjects/fileUpload/commons-fileupload/src/main/java/org/apache/commons/fileupload/FileItemHeadersSupport.java
/Users/taomo/Documents/workspace/bazelProjects/fileUpload/commons-fileupload/src/main/java/org/apache/commons/fileupload/DiskFileUpload.java
/Users/taomo/Documents/workspace/bazelProjects/fileUpload/commons-fileupload/src/main/java/org/apache/commons/fileupload/util/mime/package-info.java
/Users/taomo/Documents/workspace/bazelProjects/fileUpload/commons-fileupload/src/main/java/org/apache/commons/fileupload/util/Streams.java
/Users/taomo/Documents/workspace/bazelProjects/fileUpload/commons-fileupload/src/main/java/org/apache/commons/fileupload/disk/package-info.java
/Users/taomo/Documents/workspace/bazelProjects/fileUpload/commons-fileupload/src/main/java/org/apache/commons/fileupload/MultipartStream.java
/Users/taomo/Documents/workspace/bazelProjects/fileUpload/commons-fileupload/src/main/java/org/apache/commons/fileupload/servlet/ServletFileUpload.java
/Users/taomo/Documents/workspace/bazelProjects/fileUpload/commons-fileupload/src/main/java/org/apache/commons/fileupload/FileItem.java
/Users/taomo/Documents/workspace/bazelProjects/fileUpload/commons-fileupload/src/main/java/org/apache/commons/fileupload/ProgressListener.java
/Users/taomo/Documents/workspace/bazelProjects/fileUpload/commons-fileupload/src/main/java/org/apache/commons/fileupload/servlet/ServletRequestContext.java
/Users/taomo/Documents/workspace/bazelProjects/fileUpload/commons-fileupload/src/main/java/org/apache/commons/fileupload/servlet/FileCleanerCleanup.java
/Users/taomo/Documents/workspace/bazelProjects/fileUpload/commons-fileupload/src/main/java/org/apache/commons/fileupload/disk/DiskFileItemFactory.java
/Users/taomo/Documents/workspace/bazelProjects/fileUpload/commons-fileupload/src/main/java/org/apache/commons/fileupload/util/mime/Base64Decoder.java
/Users/taomo/Documents/workspace/bazelProjects/fileUpload/commons-fileupload/src/main/java/org/apache/commons/fileupload/portlet/package-info.java
/Users/taomo/Documents/workspace/bazelProjects/fileUpload/commons-fileupload/src/main/java/org/apache/commons/fileupload/DefaultFileItem.java
